Exp.ID;Exp.Designation;Dose;Quality;Energy;LET;Time.after.irr;Comment;MFI.1;MFI.2;MFI.3;MFI.4;MFI.5;MFI.6;Cellcount.1;Cellcount.2;Cellcount.3;Cellcount.4;Cellcount.5;Cellcount.6
15;X0913;0;X;;;4;;719;645;488;;;;;;;;;
15;X0913;6;X;;;4;;1097;657;932;;;;;;;;;
15;X0913;0;X;;;5;;1070;519;598;;;;;;;;;
15;X0913;6;X;;;5;;1086;1243;1158;;;;;;;;;
15;X0913;0;X;;;7;;653;599;400;;;;;;;;;
15;X0913;6;X;;;7;;1090;1316;1022;;;;;;;;;
15;X0913;0;X;;;11;;1990;1158;;;;;;;;;;
15;X0913;6;X;;;11;;932;944;455;;;;;;;;;
14;X0213;0;X;;;1;;1502;;;;;;;;;;;
14;X0213;0;X;;;3;;1896;1774;1727;;;;;;;;;
14;X0213;0;X;;;5;;1751;2270;1637;;;;;;;;;
14;X0213;0;X;;;7;;1858;1698;1840;;;;;;;;;
14;X0213;0;X;;;10;;2641;2635;2341;;;;;;;;;
14;X0213;6;X;;;1;;3081;;;;;;;;;;;
14;X0213;6;X;;;3;;3210;2922;2951;;;;;;;;;
14;X0213;6;X;;;5;;3570;2863;3003;;;;;;;;;
14;X0213;6;X;;;7;;3542;3685;3089;;;;;;;;;
14;X0213;6;X;;;10;;4618;4176;3987;;;;;;;;;
3;CX0809;0;C-12;;;3;;20.51;;;;;;;;;;;
3;CX0809;0;C-12;;;5;;25.93;22.61;;;;;;;;;;
3;CX0809;0;C-12;;;7;;10.35;7.8;;;;;;;;;;
3;CX0809;0;C-12;;;9;;16.18;14.07;;;;;;;;;;
3;CX0809;2;C-12;;;3;;82.82;81.25;;;;;;;;;;
3;CX0809;2;C-12;;;5;;42.18;48.52;;;;;;;;;;
3;CX0809;2;C-12;;;7;;14.81;12.99;;;;;;;;;;
3;CX0809;2;C-12;;;9;;14.93;;;;;;;;;;;
