"Exp.ID","Exp.Designation","Dose","Quality","Energy","LET","Time.after.irr","Comment","MFI.1","MFI.2","MFI.3","MFI.4","MFI.5","MFI.6","Cellcount.1","Cellcount.2","Cellcount.3","Cellcount.4","Cellcount.5","Cellcount.6"
1,"X0509",0,"X",NA,NA,2,NA,0.93,1.16,1.41,NA,NA,NA,5440,4080,NA,NA,NA,NA
1,"X0509",0,"X",NA,NA,3,NA,0.72,0.9,1.11,NA,NA,NA,8000,7120,NA,NA,NA,NA
1,"X0509",0,"X",NA,NA,4,NA,1.57,1.03,1.62,NA,NA,NA,13600,7200,NA,NA,NA,NA
1,"X0509",0,"X",NA,NA,5,NA,1.02,1.07,0.79,NA,NA,NA,12800,10848,NA,NA,NA,NA
1,"X0509",0,"X",NA,NA,6,NA,0.76,0.9,1.13,NA,NA,NA,26880,17920,NA,NA,NA,NA
1,"X0509",0,"X",NA,NA,7,NA,0.93,1.24,NA,NA,NA,NA,25600,NA,NA,NA,NA,NA
1,"X0509",2,"X",NA,NA,2,NA,1.22,1.5,1.38,NA,NA,NA,3408,2960,NA,NA,NA,NA
1,"X0509",2,"X",NA,NA,3,NA,1.03,1.19,1.44,NA,NA,NA,4368,4000,NA,NA,NA,NA
1,"X0509",2,"X",NA,NA,4,NA,1.78,2.19,2.11,NA,NA,NA,4480,4800,NA,NA,NA,NA
1,"X0509",2,"X",NA,NA,5,NA,1.54,1.85,2,NA,NA,NA,5200,NA,NA,NA,NA,NA
1,"X0509",2,"X",NA,NA,6,NA,1,1.11,1.19,NA,NA,NA,9600,7168,NA,NA,NA,NA
1,"X0509",2,"X",NA,NA,7,NA,1.2,1.53,1.82,NA,NA,NA,8400,NA,NA,NA,NA,NA
1,"X0509",6,"X",NA,NA,2,NA,1.22,1.36,1.71,NA,NA,NA,4160,2400,NA,NA,NA,NA
1,"X0509",6,"X",NA,NA,3,NA,1.09,1.28,1.54,NA,NA,NA,3200,2352,NA,NA,NA,NA
1,"X0509",6,"X",NA,NA,4,NA,1.34,1.66,2.41,NA,NA,NA,2640,3200,NA,NA,NA,NA
1,"X0509",6,"X",NA,NA,5,NA,2.17,2.3,3.09,NA,NA,NA,1600,1328,NA,NA,NA,NA
1,"X0509",6,"X",NA,NA,6,NA,0.91,1.09,1.25,NA,NA,NA,4480,4800,NA,NA,NA,NA
1,"X0509",6,"X",NA,NA,7,NA,1.24,1.48,1.86,NA,NA,NA,4800,4480,NA,NA,NA,NA
2,"X0609",0,"X",NA,NA,2,NA,0.91,1.09,1.09,NA,NA,NA,5168,3984,NA,NA,NA,NA
2,"X0609",0,"X",NA,NA,3,NA,0.98,1.04,1.16,NA,NA,NA,10160,7168,NA,NA,NA,NA
2,"X0609",0,"X",NA,NA,4,NA,0.82,0.74,0.86,NA,NA,NA,13056,13376,NA,NA,NA,NA
2,"X0609",0,"X",NA,NA,5,NA,0.82,0.91,NA,NA,NA,NA,17600,17280,NA,NA,NA,NA
2,"X0609",0,"X",NA,NA,6,NA,1.24,1.5,1.47,NA,NA,NA,23040,17504,NA,NA,NA,NA
2,"X0609",0,"X",NA,NA,7,NA,1.16,1.44,1.57,NA,NA,NA,32640,31056,NA,NA,NA,NA
2,"X0609",2,"X",NA,NA,2,NA,0.91,1.12,1.34,NA,NA,NA,3376,3344,NA,NA,NA,NA
2,"X0609",2,"X",NA,NA,3,NA,0.91,1.02,1.16,NA,NA,NA,3744,3760,NA,NA,NA,NA
2,"X0609",2,"X",NA,NA,4,NA,0.95,1.09,1.21,NA,NA,NA,5040,NA,NA,NA,NA,NA
2,"X0609",2,"X",NA,NA,5,NA,1.13,1.15,1.35,NA,NA,NA,4320,NA,NA,NA,NA,NA
2,"X0609",2,"X",NA,NA,6,NA,1.55,2.07,1.88,NA,NA,NA,7312,4384,NA,NA,NA,NA
2,"X0609",2,"X",NA,NA,7,NA,1.21,1.53,1.6,NA,NA,NA,13792,13312,NA,NA,NA,NA
2,"X0609",6,"X",NA,NA,2,NA,0.79,0.95,1.33,NA,NA,NA,2992,3264,NA,NA,NA,NA
2,"X0609",6,"X",NA,NA,3,NA,1.22,1.2,1.43,NA,NA,NA,4208,NA,NA,NA,NA,NA
2,"X0609",6,"X",NA,NA,4,NA,1.04,1.2,1.62,NA,NA,NA,3648,3552,NA,NA,NA,NA
2,"X0609",6,"X",NA,NA,5,NA,1.2,1.24,1.65,NA,NA,NA,4160,4160,NA,NA,NA,NA
2,"X0609",6,"X",NA,NA,6,NA,1.21,2.02,1.81,NA,NA,NA,3200,3200,NA,NA,NA,NA
2,"X0609",6,"X",NA,NA,7,NA,1.34,1.55,1.82,NA,NA,NA,7072,4464,NA,NA,NA,NA
3,"CX0809",0,"X",NA,NA,1,NA,0.95,NA,NA,NA,NA,NA,NA,NA,NA,NA,NA,NA
3,"CX0809",0,"X",NA,NA,3,NA,0.56,0.58,0.82,NA,NA,NA,NA,NA,NA,NA,NA,NA
3,"CX0809",0,"X",NA,NA,5,NA,0.72,0.9,0.88,NA,NA,NA,NA,NA,NA,NA,NA,NA
3,"CX0809",0,"X",NA,NA,7,NA,0.63,0.97,NA,NA,NA,NA,NA,NA,NA,NA,NA,NA
3,"CX0809",0,"X",NA,NA,9,NA,0.59,NA,NA,NA,NA,NA,NA,NA,NA,NA,NA,NA
3,"CX0809",6,"X",NA,NA,1,NA,1.16,NA,NA,NA,NA,NA,NA,NA,NA,NA,NA,NA
3,"CX0809",6,"X",NA,NA,3,NA,1.17,1.4,1.55,NA,NA,NA,NA,NA,NA,NA,NA,NA
3,"CX0809",6,"X",NA,NA,5,NA,1.31,1.39,NA,NA,NA,NA,NA,NA,NA,NA,NA,NA
3,"CX0809",6,"X",NA,NA,7,NA,1.3,0.88,NA,NA,NA,NA,NA,NA,NA,NA,NA,NA
3,"CX0809",6,"X",NA,NA,9,NA,0.74,NA,NA,NA,NA,NA,NA,NA,NA,NA,NA,NA
4,"CX0809",0,"C-12",9.8,168,1,NA,0.72,NA,NA,NA,NA,NA,NA,NA,NA,NA,NA,NA
4,"CX0809",0,"C-12",9.8,168,3,NA,1.48,0.95,1.06,NA,NA,NA,NA,NA,NA,NA,NA,NA
4,"CX0809",0,"C-12",9.8,168,5,NA,1.07,1.17,1.25,NA,NA,NA,NA,NA,NA,NA,NA,NA
4,"CX0809",0,"C-12",9.8,168,7,NA,0.89,1.11,1.14,NA,NA,NA,NA,NA,NA,NA,NA,NA
4,"CX0809",0,"C-12",9.8,168,9,NA,0.78,0.91,0.91,NA,NA,NA,NA,NA,NA,NA,NA,NA
4,"CX0809",0.5,"C-12",9.8,168,1,NA,1.01,NA,NA,NA,NA,NA,NA,NA,NA,NA,NA,NA
4,"CX0809",0.5,"C-12",9.8,168,3,NA,1.68,3.3,3.3,NA,NA,NA,NA,NA,NA,NA,NA,NA
4,"CX0809",0.5,"C-12",9.8,168,5,NA,1.56,1.57,1.79,NA,NA,NA,NA,NA,NA,NA,NA,NA
4,"CX0809",0.5,"C-12",9.8,168,7,NA,1,1.59,1.19,NA,NA,NA,NA,NA,NA,NA,NA,NA
4,"CX0809",0.5,"C-12",9.8,168,9,NA,0.6,0.64,0.67,NA,NA,NA,NA,NA,NA,NA,NA,NA
4,"CX0809",2,"C-12",9.8,168,1,NA,1.05,NA,NA,NA,NA,NA,NA,NA,NA,NA,NA,NA
4,"CX0809",2,"C-12",9.8,168,3,NA,2.86,2.59,2.79,NA,NA,NA,NA,NA,NA,NA,NA,NA
4,"CX0809",2,"C-12",9.8,168,5,NA,1.64,1.88,2.03,NA,NA,NA,NA,NA,NA,NA,NA,NA
4,"CX0809",2,"C-12",9.8,168,7,NA,1.5,1.06,NA,NA,NA,NA,NA,NA,NA,NA,NA,NA
4,"CX0809",2,"C-12",9.8,168,9,NA,0.57,NA,1.17,NA,NA,NA,NA,NA,NA,NA,NA,NA
5,"X0210",0,"X",NA,NA,2,NA,3.8,6.3,6.85,NA,NA,NA,1000,760,NA,NA,NA,NA
5,"X0210",0,"X",NA,NA,3,NA,1.55,2,2.8,NA,NA,NA,2000,1880,NA,NA,NA,NA
5,"X0210",0,"X",NA,NA,4,NA,1.82,2.1,2.8,NA,NA,NA,2400,2800,NA,NA,NA,NA
5,"X0210",0,"X",NA,NA,5,NA,2.94,4.83,5.7,NA,NA,NA,3200,3520,NA,NA,NA,NA
5,"X0210",0,"X",NA,NA,7,NA,4.1,6.2,8.65,NA,NA,NA,4800,3200,NA,NA,NA,NA
5,"X0210",0,"X",NA,NA,9,NA,4.4,5.4,6.86,NA,NA,NA,4000,5200,NA,NA,NA,NA
5,"X0210",2,"X",NA,NA,2,NA,4,6.16,7.37,NA,NA,NA,880,760,NA,NA,NA,NA
5,"X0210",2,"X",NA,NA,3,NA,2.75,3.45,4.88,NA,NA,NA,1100,NA,NA,NA,NA,NA
5,"X0210",2,"X",NA,NA,4,NA,3.28,4.73,5.6,NA,NA,NA,1240,1320,NA,NA,NA,NA
5,"X0210",2,"X",NA,NA,5,NA,4.65,5.75,7,NA,NA,NA,1280,1040,NA,NA,NA,NA
5,"X0210",2,"X",NA,NA,7,NA,5.24,6.32,5.76,NA,NA,NA,1520,2360,NA,NA,NA,NA
5,"X0210",2,"X",NA,NA,9,NA,4.24,5.86,5.78,NA,NA,NA,2000,2400,NA,NA,NA,NA
5,"X0210",6,"X",NA,NA,2,NA,4.75,6.7,8.42,NA,NA,NA,680,NA,NA,NA,NA,NA
5,"X0210",6,"X",NA,NA,3,NA,3.82,3.8,4.9,NA,NA,NA,840,NA,NA,NA,NA,NA
5,"X0210",6,"X",NA,NA,4,NA,4.2,5.4,7.32,NA,NA,NA,984,760,NA,NA,NA,NA
5,"X0210",6,"X",NA,NA,5,NA,5,7.4,8,NA,NA,NA,760,800,NA,NA,NA,NA
5,"X0210",6,"X",NA,NA,7,NA,5.66,9.54,7.79,NA,NA,NA,920,1000,NA,NA,NA,NA
5,"X0210",6,"X",NA,NA,9,NA,5.48,5.72,7,NA,NA,NA,1200,800,NA,NA,NA,NA
6,"NX0510",0,"X",NA,NA,1,NA,NA,NA,NA,NA,NA,NA,NA,NA,NA,NA,NA,NA
6,"NX0510",0,"X",NA,NA,3,NA,1.9,2.22,2.54,NA,NA,NA,NA,NA,NA,NA,NA,NA
6,"NX0510",0,"X",NA,NA,5,NA,NA,NA,NA,NA,NA,NA,NA,NA,NA,NA,NA,NA
6,"NX0510",0,"X",NA,NA,7,NA,1.55,1.87,2.06,NA,NA,NA,NA,NA,NA,NA,NA,NA
6,"NX0510",0,"X",NA,NA,10,NA,3.18,2.69,2.64,NA,NA,NA,NA,NA,NA,NA,NA,NA
6,"NX0510",0.5,"X",NA,NA,1,NA,NA,NA,NA,NA,NA,NA,NA,NA,NA,NA,NA,NA
6,"NX0510",0.5,"X",NA,NA,3,NA,2.85,2.8,3,NA,NA,NA,NA,NA,NA,NA,NA,NA
6,"NX0510",0.5,"X",NA,NA,5,NA,1.68,2.21,NA,NA,NA,NA,NA,NA,NA,NA,NA,NA
6,"NX0510",0.5,"X",NA,NA,7,NA,1.79,2.19,2.13,NA,NA,NA,NA,NA,NA,NA,NA,NA
6,"NX0510",0.5,"X",NA,NA,10,NA,2.75,2.74,3.02,NA,NA,NA,NA,NA,NA,NA,NA,NA
6,"NX0510",2,"X",NA,NA,1,NA,NA,NA,NA,NA,NA,NA,NA,NA,NA,NA,NA,NA
6,"NX0510",2,"X",NA,NA,3,NA,3.54,3.99,4.25,NA,NA,NA,NA,NA,NA,NA,NA,NA
6,"NX0510",2,"X",NA,NA,5,NA,3.68,4.64,NA,NA,NA,NA,NA,NA,NA,NA,NA,NA
6,"NX0510",2,"X",NA,NA,7,NA,2.66,3.75,5.52,NA,NA,NA,NA,NA,NA,NA,NA,NA
6,"NX0510",2,"X",NA,NA,10,NA,3.13,3.86,4.38,NA,NA,NA,NA,NA,NA,NA,NA,NA
7,"NX0510",0,"N-15",NA,NA,1,NA,2.95,NA,NA,NA,NA,NA,NA,NA,NA,NA,NA,NA
7,"NX0510",0,"N-15",NA,NA,3,NA,1.48,1.95,2.11,NA,NA,NA,NA,NA,NA,NA,NA,NA
7,"NX0510",0,"N-15",NA,NA,5,NA,1.62,2.69,3.56,NA,NA,NA,NA,NA,NA,NA,NA,NA
7,"NX0510",0,"N-15",NA,NA,7,NA,2.11,3.18,3.96,NA,NA,NA,NA,NA,NA,NA,NA,NA
7,"NX0510",0,"N-15",NA,NA,10,NA,2.22,2.86,2.67,NA,NA,NA,NA,NA,NA,NA,NA,NA
7,"NX0510",0.5,"N-15",NA,NA,1,NA,3.23,NA,NA,NA,NA,NA,NA,NA,NA,NA,NA,NA
7,"NX0510",0.5,"N-15",NA,NA,3,NA,2.18,2.97,3.22,NA,NA,NA,NA,NA,NA,NA,NA,NA
7,"NX0510",0.5,"N-15",NA,NA,5,NA,2.53,4.12,4.17,NA,NA,NA,NA,NA,NA,NA,NA,NA
7,"NX0510",0.5,"N-15",NA,NA,7,NA,2.85,2.6,3.39,NA,NA,NA,NA,NA,NA,NA,NA,NA
7,"NX0510",0.5,"N-15",NA,NA,10,NA,2.39,2,2.79,NA,NA,NA,NA,NA,NA,NA,NA,NA
7,"NX0510",2,"N-15",NA,NA,1,NA,4.48,NA,NA,NA,NA,NA,NA,NA,NA,NA,NA,NA
7,"NX0510",2,"N-15",NA,NA,3,NA,3.58,2.86,3.92,NA,NA,NA,NA,NA,NA,NA,NA,NA
7,"NX0510",2,"N-15",NA,NA,5,NA,4.51,4.67,6.9,NA,NA,NA,NA,NA,NA,NA,NA,NA
7,"NX0510",2,"N-15",NA,NA,7,NA,4.58,5.58,5.46,NA,NA,NA,NA,NA,NA,NA,NA,NA
7,"NX0510",2,"N-15",NA,NA,10,NA,2.47,3.05,3.44,NA,NA,NA,NA,NA,NA,NA,NA,NA
8,"X1010",0,"X",NA,NA,1,NA,5,NA,NA,NA,NA,NA,NA,NA,NA,NA,NA,NA
8,"X1010",0,"X",NA,NA,3,NA,35,66.58,81.93,NA,NA,NA,NA,NA,NA,NA,NA,NA
8,"X1010",0,"X",NA,NA,5,NA,35.3,22.33,49.85,NA,NA,NA,NA,NA,NA,NA,NA,NA
8,"X1010",0,"X",NA,NA,7,NA,24.2,18.5,34.38,NA,NA,NA,NA,NA,NA,NA,NA,NA
8,"X1010",0,"X",NA,NA,11,NA,33.9,25.41,37.26,NA,NA,NA,NA,NA,NA,NA,NA,NA
8,"X1010",0.5,"X",NA,NA,1,NA,6.73,NA,NA,NA,NA,NA,NA,NA,NA,NA,NA,NA
8,"X1010",0.5,"X",NA,NA,3,NA,55.7,105.87,91.32,NA,NA,NA,NA,NA,NA,NA,NA,NA
8,"X1010",0.5,"X",NA,NA,5,NA,36.02,28.54,57.8,NA,NA,NA,NA,NA,NA,NA,NA,NA
8,"X1010",0.5,"X",NA,NA,7,NA,28.56,36.6,39.39,NA,NA,NA,NA,NA,NA,NA,NA,NA
8,"X1010",0.5,"X",NA,NA,11,NA,21.8,34.33,40.53,NA,NA,NA,NA,NA,NA,NA,NA,NA
8,"X1010",2,"X",NA,NA,1,NA,6,NA,NA,NA,NA,NA,NA,NA,NA,NA,NA,NA
8,"X1010",2,"X",NA,NA,3,NA,66.37,90.61,115.42,NA,NA,NA,NA,NA,NA,NA,NA,NA
8,"X1010",2,"X",NA,NA,5,NA,46.86,66.92,63.74,NA,NA,NA,NA,NA,NA,NA,NA,NA
8,"X1010",2,"X",NA,NA,7,NA,34.7,41.14,48.21,NA,NA,NA,NA,NA,NA,NA,NA,NA
8,"X1010",2,"X",NA,NA,11,NA,33.23,36,48,NA,NA,NA,NA,NA,NA,NA,NA,NA
9,"X0111",0,"X",NA,NA,1,NA,6.89,NA,NA,NA,NA,NA,NA,NA,NA,NA,NA,NA
9,"X0111",0,"X",NA,NA,3,NA,30.83,40.8,41.3,NA,NA,NA,NA,NA,NA,NA,NA,NA
9,"X0111",0,"X",NA,NA,5,NA,11.67,19.89,18.29,NA,NA,NA,NA,NA,NA,NA,NA,NA
9,"X0111",0,"X",NA,NA,7,NA,16.87,24.06,25.59,NA,NA,NA,NA,NA,NA,NA,NA,NA
9,"X0111",0.5,"X",NA,NA,1,NA,9.51,NA,NA,NA,NA,NA,NA,NA,NA,NA,NA,NA
9,"X0111",0.5,"X",NA,NA,3,NA,41.4,46.81,65.21,NA,NA,NA,NA,NA,NA,NA,NA,NA
9,"X0111",0.5,"X",NA,NA,5,NA,16.52,27.52,NA,NA,NA,NA,NA,NA,NA,NA,NA,NA
9,"X0111",0.5,"X",NA,NA,7,NA,18.53,22.47,25.86,NA,NA,NA,NA,NA,NA,NA,NA,NA
9,"X0111",2,"X",NA,NA,1,NA,4.91,NA,NA,NA,NA,NA,NA,NA,NA,NA,NA,NA
9,"X0111",2,"X",NA,NA,3,NA,43.38,44.8,46.23,NA,NA,NA,NA,NA,NA,NA,NA,NA
9,"X0111",2,"X",NA,NA,5,NA,16.89,20.88,23.47,NA,NA,NA,NA,NA,NA,NA,NA,NA
9,"X0111",2,"X",NA,NA,7,NA,18.8,20.1,NA,NA,NA,NA,NA,NA,NA,NA,NA,NA
10,"CX0411",0,"C-12",9.8,168,1,NA,60.52,NA,NA,NA,NA,NA,4000,4000,4000,NA,NA,NA
10,"CX0411",0,"C-12",9.8,168,3,NA,16.74,22.75,29.85,NA,NA,NA,11968,11824,NA,NA,NA,NA
10,"CX0411",0,"C-12",9.8,168,5,NA,11.63,16.3,18.84,NA,NA,NA,18400,19520,18080,NA,NA,NA
10,"CX0411",0,"C-12",9.8,168,7,NA,5.31,8.61,14.87,NA,NA,NA,29600,37280,38080,NA,NA,NA
10,"CX0411",0,"C-12",9.8,168,10,NA,9.06,12.45,16.28,NA,NA,NA,40000,40000,31520,NA,NA,NA
10,"CX0411",0.5,"C-12",9.8,168,1,NA,74.32,NA,NA,NA,NA,NA,4000,4000,4000,NA,NA,NA
10,"CX0411",0.5,"C-12",9.8,168,3,NA,38.26,45.16,62.96,NA,NA,NA,6592,4736,5520,NA,NA,NA
10,"CX0411",0.5,"C-12",9.8,168,5,NA,46.02,28.8,23.27,NA,NA,NA,5920,7024,7520,NA,NA,NA
10,"CX0411",0.5,"C-12",9.8,168,7,NA,12.97,15.56,13.1,NA,NA,NA,13280,13760,14560,NA,NA,NA
10,"CX0411",0.5,"C-12",9.8,168,10,NA,13.42,12.17,17.16,NA,NA,NA,22400,20800,25120,NA,NA,NA
10,"CX0411",2,"C-12",9.8,168,1,NA,74.84,NA,NA,NA,NA,NA,4000,4000,4000,NA,NA,NA
10,"CX0411",2,"C-12",9.8,168,3,NA,38.96,39.68,64.49,NA,NA,NA,4288,3904,4912,NA,NA,NA
10,"CX0411",2,"C-12",9.8,168,5,NA,33.09,34.55,44.35,NA,NA,NA,3104,4512,4576,NA,NA,NA
10,"CX0411",2,"C-12",9.8,168,7,NA,10.94,20.21,18.51,NA,NA,NA,6400,6880,5808,NA,NA,NA
10,"CX0411",2,"C-12",9.8,168,10,NA,10.92,18.18,15.33,NA,NA,NA,11168,12000,14048,NA,NA,NA
11,"CX0411",0,"X",NA,NA,1,NA,58.12,NA,NA,NA,NA,NA,4000,4000,4000,NA,NA,NA
11,"CX0411",0,"X",NA,NA,3,NA,36.79,26.5,28.61,NA,NA,NA,9600,10320,10368,NA,NA,NA
11,"CX0411",0,"X",NA,NA,5,NA,12.78,15.46,15.79,NA,NA,NA,16000,19200,16000,NA,NA,NA
11,"CX0411",0,"X",NA,NA,7,NA,5.04,9.69,12.96,NA,NA,NA,36800,32000,41600,NA,NA,NA
11,"CX0411",0,"X",NA,NA,10,NA,8.35,10.54,10.31,NA,NA,NA,34080,38560,40160,NA,NA,NA
11,"CX0411",0.5,"X",NA,NA,1,NA,46.11,NA,NA,NA,NA,NA,4000,4000,4000,NA,NA,NA
11,"CX0411",0.5,"X",NA,NA,3,NA,25.64,29.86,36.44,NA,NA,NA,8000,9584,10800,NA,NA,NA
11,"CX0411",0.5,"X",NA,NA,5,NA,17.42,14.44,35.86,NA,NA,NA,12160,11680,13280,NA,NA,NA
11,"CX0411",0.5,"X",NA,NA,7,NA,6.5,10.65,20.4,NA,NA,NA,26240,26720,29920,NA,NA,NA
11,"CX0411",0.5,"X",NA,NA,10,NA,7.52,10.86,11.4,NA,NA,NA,35680,35200,31520,NA,NA,NA
11,"CX0411",6,"X",NA,NA,1,NA,65.66,NA,NA,NA,NA,NA,4000,4000,4000,NA,NA,NA
11,"CX0411",6,"X",NA,NA,3,NA,37.89,48.75,42.45,NA,NA,NA,5120,5360,4736,NA,NA,NA
11,"CX0411",6,"X",NA,NA,5,NA,19.49,26.94,40.4,NA,NA,NA,3168,3200,3200,NA,NA,NA
11,"CX0411",6,"X",NA,NA,7,NA,11.79,16.29,21.58,NA,NA,NA,7680,6880,8480,NA,NA,NA
11,"CX0411",6,"X",NA,NA,10,NA,10.91,11.36,9.04,NA,NA,NA,9440,9120,8800,NA,NA,NA
12,"CX0711",0,"C-12",9.8,168,3,NA,103,113,161,NA,NA,NA,10176,10784,11840,NA,NA,NA
12,"CX0711",0,"C-12",9.8,168,5,NA,70.4,95.3,141,NA,NA,NA,24640,23408,24640,NA,NA,NA
12,"CX0711",0,"C-12",9.8,168,7,NA,62.4,67.1,93.1,NA,NA,NA,52800,46880,55520,NA,NA,NA
12,"CX0711",0,"C-12",9.8,168,9,NA,65.4,79.8,88.1,NA,NA,NA,53600,55360,49120,NA,NA,NA
12,"CX0711",0.5,"C-12",9.8,168,3,NA,173,220,241,NA,NA,NA,6720,6560,7632,NA,NA,NA
12,"CX0711",0.5,"C-12",9.8,168,5,NA,128,126,250,NA,NA,NA,9744,10544,12640,NA,NA,NA
12,"CX0711",0.5,"C-12",9.8,168,7,NA,88.6,96.2,135,NA,NA,NA,22400,30080,NA,NA,NA,NA
12,"CX0711",0.5,"C-12",9.8,168,9,NA,80.9,119,NA,NA,NA,NA,38960,35200,35200,NA,NA,NA
12,"CX0711",2,"C-12",9.8,168,3,NA,195,285,309,NA,NA,NA,5536,4624,2848,NA,NA,NA
12,"CX0711",2,"C-12",9.8,168,5,NA,184,218,289,NA,NA,NA,4480,4480,5440,NA,NA,NA
12,"CX0711",2,"C-12",9.8,168,7,NA,97.6,129,175,NA,NA,NA,7504,10528,8480,NA,NA,NA
12,"CX0711",2,"C-12",9.8,168,9,NA,102,87.3,139,NA,NA,NA,16160,16160,16960,NA,NA,NA
13,"CX0711",0,"X",NA,NA,3,NA,53.8,110,182,NA,NA,NA,12224,10608,11344,NA,NA,NA
13,"CX0711",0,"X",NA,NA,5,NA,104,77.8,NA,NA,NA,NA,21968,21472,25424,NA,NA,NA
13,"CX0711",0,"X",NA,NA,7,NA,38.9,50,65.5,NA,NA,NA,47200,48160,47360,NA,NA,NA
13,"CX0711",0,"X",NA,NA,9,NA,79.9,96.6,117,NA,NA,NA,50720,47840,53600,NA,NA,NA
13,"CX0711",0.5,"X",NA,NA,3,NA,79.1,299,NA,NA,NA,NA,9536,9408,9728,NA,NA,NA
13,"CX0711",0.5,"X",NA,NA,5,NA,103,113,NA,NA,NA,NA,21600,19680,21584,NA,NA,NA
13,"CX0711",0.5,"X",NA,NA,7,NA,62.7,65.7,102,NA,NA,NA,56800,36480,40320,NA,NA,NA
13,"CX0711",0.5,"X",NA,NA,9,NA,98.3,116,141,NA,NA,NA,49920,48640,50080,NA,NA,NA
13,"CX0711",6,"X",NA,NA,3,NA,240,252,347,NA,NA,NA,5584,5984,4784,NA,NA,NA
13,"CX0711",6,"X",NA,NA,5,NA,163,207,NA,NA,NA,NA,4960,7120,6864,NA,NA,NA
13,"CX0711",6,"X",NA,NA,7,NA,74.3,99.3,157,NA,NA,NA,11200,10768,11312,NA,NA,NA
13,"CX0711",6,"X",NA,NA,9,NA,102,112,147,NA,NA,NA,15680,15424,16000,NA,NA,NA
14,"X0213",0,"X",NA,NA,1,NA,141,NA,NA,NA,NA,NA,NA,NA,NA,NA,NA,NA
14,"X0213",0,"X",NA,NA,3,NA,80.9,80.8,83.6,NA,NA,NA,8608,8112,7888,NA,NA,NA
14,"X0213",0,"X",NA,NA,5,NA,124,156,147,NA,NA,NA,12160,14000,14080,NA,NA,NA
14,"X0213",0,"X",NA,NA,7,NA,179,148,153,NA,NA,NA,18768,24032,19536,NA,NA,NA
14,"X0213",0,"X",NA,NA,10,NA,131,141,NA,NA,NA,NA,26080,27520,23200,NA,NA,NA
14,"X0213",6,"X",NA,NA,1,NA,143,NA,NA,NA,NA,NA,NA,NA,NA,NA,NA,NA
14,"X0213",6,"X",NA,NA,3,NA,99.7,149,148,NA,NA,NA,4272,5088,4800,NA,NA,NA
14,"X0213",6,"X",NA,NA,5,NA,181,203,221,NA,NA,NA,4528,5232,4448,NA,NA,NA
14,"X0213",6,"X",NA,NA,7,NA,234,237,253,NA,NA,NA,5152,4336,4240,NA,NA,NA
14,"X0213",6,"X",NA,NA,10,NA,208,189,NA,NA,NA,NA,5424,5920,5744,NA,NA,NA
15,"X0913",0,"X",NA,NA,4,NA,89.9,98.6,108,NA,NA,NA,18880,15040,18240,NA,NA,NA
15,"X0913",0,"X",NA,NA,5,NA,124,117,130,NA,NA,NA,20160,14784,25600,NA,NA,NA
15,"X0913",0,"X",NA,NA,7,NA,91.2,119,115,NA,NA,NA,30720,32160,39840,NA,NA,NA
15,"X0913",0,"X",NA,NA,11,NA,125,125,NA,NA,NA,NA,34720,NA,NA,NA,NA,NA
15,"X0913",6,"X",NA,NA,4,NA,191,196,240,NA,NA,NA,6080,5888,5824,NA,NA,NA
15,"X0913",6,"X",NA,NA,5,NA,205,240,291,NA,NA,NA,2624,4064,4192,NA,NA,NA
15,"X0913",6,"X",NA,NA,7,NA,140,187,180,NA,NA,NA,6496,4624,5328,NA,NA,NA
15,"X0913",6,"X",NA,NA,11,NA,134,136,145,NA,NA,NA,12480,13664,12160,NA,NA,NA
